{
  "min_time": 2000,
  "max_time": 3000,
  "listen": ["localhost", 5001],
  "dispatcher": ["localhost", 6001],
  "task_timeout": 4000,
  "clean_up_timeout": 1000,
  "log_timeout": 1000,
  "debug": true
}